-- Merging decision tree log ---
manifest
ADDED from C:\Users\Sagar Sojitra\Desktop\IScoreTest\app\src\main\AndroidManifest.xml:2:1-21:12
INJECTED from C:\Users\Sagar Sojitra\Desktop\IScoreTest\app\src\main\AndroidManifest.xml:2:1-21:12
INJECTED from C:\Users\Sagar Sojitra\Desktop\IScoreTest\app\src\main\AndroidManifest.xml:2:1-21:12
INJECTED from C:\Users\Sagar Sojitra\Desktop\IScoreTest\app\src\main\AndroidManifest.xml:2:1-21:12
MERGED from [com.android.support:design:26.1.0] C:\Users\Sagar Sojitra\.gradle\caches\transforms-1\files-1.1\design-26.1.0.aar\6897d9570355e8ceb32e6d7ee7726df6\AndroidManifest.xml:17:1-31:12
MERGED from [com.android.support:appcompat-v7:26.1.0] C:\Users\Sagar Sojitra\.gradle\caches\transforms-1\files-1.1\appcompat-v7-26.1.0.aar\1e8476dccf1e2f9370ef77afd19036f4\AndroidManifest.xml:17:1-31:12
MERGED from [com.android.support.constraint:constraint-layout:1.1.2] C:\Users\Sagar Sojitra\.gradle\caches\transforms-1\files-1.1\constraint-layout-1.1.2.aar\a54a1b55efb6759366ab492c8ca4c734\AndroidManifest.xml:2:1-11:12
MERGED from [com.android.support:animated-vector-drawable:26.1.0] C:\Users\Sagar Sojitra\.gradle\caches\transforms-1\files-1.1\animated-vector-drawable-26.1.0.aar\673c431ab1e53dc680c80364704dbd67\AndroidManifest.xml:17:1-28:12
MERGED from [com.android.support:support-vector-drawable:26.1.0] C:\Users\Sagar Sojitra\.gradle\caches\transforms-1\files-1.1\support-vector-drawable-26.1.0.aar\6c1b1ca67a840c180f1ae1fe877884f9\AndroidManifest.xml:17:1-28:12
MERGED from [com.android.support:recyclerview-v7:26.1.0] C:\Users\Sagar Sojitra\.gradle\caches\transforms-1\files-1.1\recyclerview-v7-26.1.0.aar\d2461ce4cdb1fb0678bc21bff2d0d52c\AndroidManifest.xml:17:1-28:12
MERGED from [com.android.support:transition:26.1.0] C:\Users\Sagar Sojitra\.gradle\caches\transforms-1\files-1.1\transition-26.1.0.aar\044f298b00005e5d92b088cb7c5e55f1\AndroidManifest.xml:17:1-28:12
MERGED from [com.android.support:support-v4:26.1.0] C:\Users\Sagar Sojitra\.gradle\caches\transforms-1\files-1.1\support-v4-26.1.0.aar\0a04388275850ab12973f30769c40aad\AndroidManifest.xml:17:1-31:12
MERGED from [com.android.support:support-media-compat:26.1.0] C:\Users\Sagar Sojitra\.gradle\caches\transforms-1\files-1.1\support-media-compat-26.1.0.aar\e60438f0dab04d98e8cc8084d9259707\AndroidManifest.xml:17:1-31:12
MERGED from [com.android.support:support-fragment:26.1.0] C:\Users\Sagar Sojitra\.gradle\caches\transforms-1\files-1.1\support-fragment-26.1.0.aar\1d5d2e05e44f9651fe0591c34bcc5170\AndroidManifest.xml:17:1-31:12
MERGED from [com.android.support:support-core-utils:26.1.0] C:\Users\Sagar Sojitra\.gradle\caches\transforms-1\files-1.1\support-core-utils-26.1.0.aar\a9470800c5f29818e0df0f6cc456a78e\AndroidManifest.xml:17:1-31:12
MERGED from [com.android.support:support-core-ui:26.1.0] C:\Users\Sagar Sojitra\.gradle\caches\transforms-1\files-1.1\support-core-ui-26.1.0.aar\9a659c2b5b9fe5159a285508326eb7a5\AndroidManifest.xml:17:1-31:12
MERGED from [com.android.support:support-compat:26.1.0] C:\Users\Sagar Sojitra\.gradle\caches\transforms-1\files-1.1\support-compat-26.1.0.aar\9a74c6a8d70ca11f58ad4f1575a4e4ea\AndroidManifest.xml:17:1-31:12
MERGED from [android.arch.lifecycle:runtime:1.0.0] C:\Users\Sagar Sojitra\.gradle\caches\transforms-1\files-1.1\runtime-1.0.0.aar\4055cbd78d21855a36bd37296bff1ce8\AndroidManifest.xml:17:1-30:12
INJECTED from C:\Users\Sagar Sojitra\Desktop\IScoreTest\app\src\main\AndroidManifest.xml:2:1-21:12
INJECTED from C:\Users\Sagar Sojitra\Desktop\IScoreTest\app\src\main\AndroidManifest.xml:2:1-21:12
INJECTED from C:\Users\Sagar Sojitra\Desktop\IScoreTest\app\src\main\AndroidManifest.xml:2:1-21:12
	package
		ADDED from C:\Users\Sagar Sojitra\Desktop\IScoreTest\app\src\main\AndroidManifest.xml:3:5-30
		INJECTED from C:\Users\Sagar Sojitra\Desktop\IScoreTest\app\src\main\AndroidManifest.xml
		INJECTED from C:\Users\Sagar Sojitra\Desktop\IScoreTest\app\src\main\AndroidManifest.xml
	android:versionName
		INJECTED from C:\Users\Sagar Sojitra\Desktop\IScoreTest\app\src\main\AndroidManifest.xml
		ADDED from C:\Users\Sagar Sojitra\Desktop\IScoreTest\app\src\main\AndroidManifest.xml:2:1-21:12
		INJECTED from C:\Users\Sagar Sojitra\Desktop\IScoreTest\app\src\main\AndroidManifest.xml
	android:versionCode
		INJECTED from C:\Users\Sagar Sojitra\Desktop\IScoreTest\app\src\main\AndroidManifest.xml
		ADDED from C:\Users\Sagar Sojitra\Desktop\IScoreTest\app\src\main\AndroidManifest.xml:2:1-21:12
		INJECTED from C:\Users\Sagar Sojitra\Desktop\IScoreTest\app\src\main\AndroidManifest.xml
	xmlns:android
		ADDED from C:\Users\Sagar Sojitra\Desktop\IScoreTest\app\src\main\AndroidManifest.xml:2:11-69
application
ADDED from C:\Users\Sagar Sojitra\Desktop\IScoreTest\app\src\main\AndroidManifest.xml:5:5-19:19
MERGED from [com.android.support:design:26.1.0] C:\Users\Sagar Sojitra\.gradle\caches\transforms-1\files-1.1\design-26.1.0.aar\6897d9570355e8ceb32e6d7ee7726df6\AndroidManifest.xml:25:5-29:19
MERGED from [com.android.support:design:26.1.0] C:\Users\Sagar Sojitra\.gradle\caches\transforms-1\files-1.1\design-26.1.0.aar\6897d9570355e8ceb32e6d7ee7726df6\AndroidManifest.xml:25:5-29:19
MERGED from [com.android.support:appcompat-v7:26.1.0] C:\Users\Sagar Sojitra\.gradle\caches\transforms-1\files-1.1\appcompat-v7-26.1.0.aar\1e8476dccf1e2f9370ef77afd19036f4\AndroidManifest.xml:25:5-29:19
MERGED from [com.android.support:appcompat-v7:26.1.0] C:\Users\Sagar Sojitra\.gradle\caches\transforms-1\files-1.1\appcompat-v7-26.1.0.aar\1e8476dccf1e2f9370ef77afd19036f4\AndroidManifest.xml:25:5-29:19
MERGED from [com.android.support.constraint:constraint-layout:1.1.2] C:\Users\Sagar Sojitra\.gradle\caches\transforms-1\files-1.1\constraint-layout-1.1.2.aar\a54a1b55efb6759366ab492c8ca4c734\AndroidManifest.xml:9:5-20
MERGED from [com.android.support.constraint:constraint-layout:1.1.2] C:\Users\Sagar Sojitra\.gradle\caches\transforms-1\files-1.1\constraint-layout-1.1.2.aar\a54a1b55efb6759366ab492c8ca4c734\AndroidManifest.xml:9:5-20
MERGED from [com.android.support:animated-vector-drawable:26.1.0] C:\Users\Sagar Sojitra\.gradle\caches\transforms-1\files-1.1\animated-vector-drawable-26.1.0.aar\673c431ab1e53dc680c80364704dbd67\AndroidManifest.xml:22:5-26:19
MERGED from [com.android.support:animated-vector-drawable:26.1.0] C:\Users\Sagar Sojitra\.gradle\caches\transforms-1\files-1.1\animated-vector-drawable-26.1.0.aar\673c431ab1e53dc680c80364704dbd67\AndroidManifest.xml:22:5-26:19
MERGED from [com.android.support:support-vector-drawable:26.1.0] C:\Users\Sagar Sojitra\.gradle\caches\transforms-1\files-1.1\support-vector-drawable-26.1.0.aar\6c1b1ca67a840c180f1ae1fe877884f9\AndroidManifest.xml:22:5-26:19
MERGED from [com.android.support:support-vector-drawable:26.1.0] C:\Users\Sagar Sojitra\.gradle\caches\transforms-1\files-1.1\support-vector-drawable-26.1.0.aar\6c1b1ca67a840c180f1ae1fe877884f9\AndroidManifest.xml:22:5-26:19
MERGED from [com.android.support:recyclerview-v7:26.1.0] C:\Users\Sagar Sojitra\.gradle\caches\transforms-1\files-1.1\recyclerview-v7-26.1.0.aar\d2461ce4cdb1fb0678bc21bff2d0d52c\AndroidManifest.xml:22:5-26:19
MERGED from [com.android.support:recyclerview-v7:26.1.0] C:\Users\Sagar Sojitra\.gradle\caches\transforms-1\files-1.1\recyclerview-v7-26.1.0.aar\d2461ce4cdb1fb0678bc21bff2d0d52c\AndroidManifest.xml:22:5-26:19
MERGED from [com.android.support:transition:26.1.0] C:\Users\Sagar Sojitra\.gradle\caches\transforms-1\files-1.1\transition-26.1.0.aar\044f298b00005e5d92b088cb7c5e55f1\AndroidManifest.xml:22:5-26:19
MERGED from [com.android.support:transition:26.1.0] C:\Users\Sagar Sojitra\.gradle\caches\transforms-1\files-1.1\transition-26.1.0.aar\044f298b00005e5d92b088cb7c5e55f1\AndroidManifest.xml:22:5-26:19
MERGED from [com.android.support:support-v4:26.1.0] C:\Users\Sagar Sojitra\.gradle\caches\transforms-1\files-1.1\support-v4-26.1.0.aar\0a04388275850ab12973f30769c40aad\AndroidManifest.xml:25:5-29:19
MERGED from [com.android.support:support-v4:26.1.0] C:\Users\Sagar Sojitra\.gradle\caches\transforms-1\files-1.1\support-v4-26.1.0.aar\0a04388275850ab12973f30769c40aad\AndroidManifest.xml:25:5-29:19
MERGED from [com.android.support:support-media-compat:26.1.0] C:\Users\Sagar Sojitra\.gradle\caches\transforms-1\files-1.1\support-media-compat-26.1.0.aar\e60438f0dab04d98e8cc8084d9259707\AndroidManifest.xml:25:5-29:19
MERGED from [com.android.support:support-media-compat:26.1.0] C:\Users\Sagar Sojitra\.gradle\caches\transforms-1\files-1.1\support-media-compat-26.1.0.aar\e60438f0dab04d98e8cc8084d9259707\AndroidManifest.xml:25:5-29:19
MERGED from [com.android.support:support-fragment:26.1.0] C:\Users\Sagar Sojitra\.gradle\caches\transforms-1\files-1.1\support-fragment-26.1.0.aar\1d5d2e05e44f9651fe0591c34bcc5170\AndroidManifest.xml:25:5-29:19
MERGED from [com.android.support:support-fragment:26.1.0] C:\Users\Sagar Sojitra\.gradle\caches\transforms-1\files-1.1\support-fragment-26.1.0.aar\1d5d2e05e44f9651fe0591c34bcc5170\AndroidManifest.xml:25:5-29:19
MERGED from [com.android.support:support-core-utils:26.1.0] C:\Users\Sagar Sojitra\.gradle\caches\transforms-1\files-1.1\support-core-utils-26.1.0.aar\a9470800c5f29818e0df0f6cc456a78e\AndroidManifest.xml:25:5-29:19
MERGED from [com.android.support:support-core-utils:26.1.0] C:\Users\Sagar Sojitra\.gradle\caches\transforms-1\files-1.1\support-core-utils-26.1.0.aar\a9470800c5f29818e0df0f6cc456a78e\AndroidManifest.xml:25:5-29:19
MERGED from [com.android.support:support-core-ui:26.1.0] C:\Users\Sagar Sojitra\.gradle\caches\transforms-1\files-1.1\support-core-ui-26.1.0.aar\9a659c2b5b9fe5159a285508326eb7a5\AndroidManifest.xml:25:5-29:19
MERGED from [com.android.support:support-core-ui:26.1.0] C:\Users\Sagar Sojitra\.gradle\caches\transforms-1\files-1.1\support-core-ui-26.1.0.aar\9a659c2b5b9fe5159a285508326eb7a5\AndroidManifest.xml:25:5-29:19
MERGED from [com.android.support:support-compat:26.1.0] C:\Users\Sagar Sojitra\.gradle\caches\transforms-1\files-1.1\support-compat-26.1.0.aar\9a74c6a8d70ca11f58ad4f1575a4e4ea\AndroidManifest.xml:25:5-29:19
MERGED from [com.android.support:support-compat:26.1.0] C:\Users\Sagar Sojitra\.gradle\caches\transforms-1\files-1.1\support-compat-26.1.0.aar\9a74c6a8d70ca11f58ad4f1575a4e4ea\AndroidManifest.xml:25:5-29:19
MERGED from [android.arch.lifecycle:runtime:1.0.0] C:\Users\Sagar Sojitra\.gradle\caches\transforms-1\files-1.1\runtime-1.0.0.aar\4055cbd78d21855a36bd37296bff1ce8\AndroidManifest.xml:24:5-28:19
MERGED from [android.arch.lifecycle:runtime:1.0.0] C:\Users\Sagar Sojitra\.gradle\caches\transforms-1\files-1.1\runtime-1.0.0.aar\4055cbd78d21855a36bd37296bff1ce8\AndroidManifest.xml:24:5-28:19
	android:supportsRtl
		ADDED from C:\Users\Sagar Sojitra\Desktop\IScoreTest\app\src\main\AndroidManifest.xml:10:9-35
	android:label
		ADDED from C:\Users\Sagar Sojitra\Desktop\IScoreTest\app\src\main\AndroidManifest.xml:8:9-41
	android:roundIcon
		ADDED from C:\Users\Sagar Sojitra\Desktop\IScoreTest\app\src\main\AndroidManifest.xml:9:9-54
	android:icon
		ADDED from C:\Users\Sagar Sojitra\Desktop\IScoreTest\app\src\main\AndroidManifest.xml:7:9-43
	android:allowBackup
		ADDED from C:\Users\Sagar Sojitra\Desktop\IScoreTest\app\src\main\AndroidManifest.xml:6:9-35
	android:theme
		ADDED from C:\Users\Sagar Sojitra\Desktop\IScoreTest\app\src\main\AndroidManifest.xml:11:9-40
activity#com.test.iscore.MainActivity
ADDED from C:\Users\Sagar Sojitra\Desktop\IScoreTest\app\src\main\AndroidManifest.xml:12:9-18:20
	android:name
		ADDED from C:\Users\Sagar Sojitra\Desktop\IScoreTest\app\src\main\AndroidManifest.xml:12:19-47
intent-filter#action:name:android.intent.action.MAIN+category:name:android.intent.category.LAUNCHER
ADDED from C:\Users\Sagar Sojitra\Desktop\IScoreTest\app\src\main\AndroidManifest.xml:13:13-17:29
action#android.intent.action.MAIN
ADDED from C:\Users\Sagar Sojitra\Desktop\IScoreTest\app\src\main\AndroidManifest.xml:14:17-69
	android:name
		ADDED from C:\Users\Sagar Sojitra\Desktop\IScoreTest\app\src\main\AndroidManifest.xml:14:25-66
category#android.intent.category.LAUNCHER
ADDED from C:\Users\Sagar Sojitra\Desktop\IScoreTest\app\src\main\AndroidManifest.xml:16:17-77
	android:name
		ADDED from C:\Users\Sagar Sojitra\Desktop\IScoreTest\app\src\main\AndroidManifest.xml:16:27-74
uses-sdk
INJECTED from C:\Users\Sagar Sojitra\Desktop\IScoreTest\app\src\main\AndroidManifest.xml reason: use-sdk injection requested
INJECTED from C:\Users\Sagar Sojitra\Desktop\IScoreTest\app\src\main\AndroidManifest.xml
INJECTED from C:\Users\Sagar Sojitra\Desktop\IScoreTest\app\src\main\AndroidManifest.xml
MERGED from [com.android.support:design:26.1.0] C:\Users\Sagar Sojitra\.gradle\caches\transforms-1\files-1.1\design-26.1.0.aar\6897d9570355e8ceb32e6d7ee7726df6\AndroidManifest.xml:21:5-23:62
MERGED from [com.android.support:design:26.1.0] C:\Users\Sagar Sojitra\.gradle\caches\transforms-1\files-1.1\design-26.1.0.aar\6897d9570355e8ceb32e6d7ee7726df6\AndroidManifest.xml:21:5-23:62
MERGED from [com.android.support:appcompat-v7:26.1.0] C:\Users\Sagar Sojitra\.gradle\caches\transforms-1\files-1.1\appcompat-v7-26.1.0.aar\1e8476dccf1e2f9370ef77afd19036f4\AndroidManifest.xml:21:5-23:78
MERGED from [com.android.support:appcompat-v7:26.1.0] C:\Users\Sagar Sojitra\.gradle\caches\transforms-1\files-1.1\appcompat-v7-26.1.0.aar\1e8476dccf1e2f9370ef77afd19036f4\AndroidManifest.xml:21:5-23:78
MERGED from [com.android.support.constraint:constraint-layout:1.1.2] C:\Users\Sagar Sojitra\.gradle\caches\transforms-1\files-1.1\constraint-layout-1.1.2.aar\a54a1b55efb6759366ab492c8ca4c734\AndroidManifest.xml:5:5-7:41
MERGED from [com.android.support.constraint:constraint-layout:1.1.2] C:\Users\Sagar Sojitra\.gradle\caches\transforms-1\files-1.1\constraint-layout-1.1.2.aar\a54a1b55efb6759366ab492c8ca4c734\AndroidManifest.xml:5:5-7:41
MERGED from [com.android.support:animated-vector-drawable:26.1.0] C:\Users\Sagar Sojitra\.gradle\caches\transforms-1\files-1.1\animated-vector-drawable-26.1.0.aar\673c431ab1e53dc680c80364704dbd67\AndroidManifest.xml:20:5-44
MERGED from [com.android.support:animated-vector-drawable:26.1.0] C:\Users\Sagar Sojitra\.gradle\caches\transforms-1\files-1.1\animated-vector-drawable-26.1.0.aar\673c431ab1e53dc680c80364704dbd67\AndroidManifest.xml:20:5-44
MERGED from [com.android.support:support-vector-drawable:26.1.0] C:\Users\Sagar Sojitra\.gradle\caches\transforms-1\files-1.1\support-vector-drawable-26.1.0.aar\6c1b1ca67a840c180f1ae1fe877884f9\AndroidManifest.xml:20:5-44
MERGED from [com.android.support:support-vector-drawable:26.1.0] C:\Users\Sagar Sojitra\.gradle\caches\transforms-1\files-1.1\support-vector-drawable-26.1.0.aar\6c1b1ca67a840c180f1ae1fe877884f9\AndroidManifest.xml:20:5-44
MERGED from [com.android.support:recyclerview-v7:26.1.0] C:\Users\Sagar Sojitra\.gradle\caches\transforms-1\files-1.1\recyclerview-v7-26.1.0.aar\d2461ce4cdb1fb0678bc21bff2d0d52c\AndroidManifest.xml:20:5-44
MERGED from [com.android.support:recyclerview-v7:26.1.0] C:\Users\Sagar Sojitra\.gradle\caches\transforms-1\files-1.1\recyclerview-v7-26.1.0.aar\d2461ce4cdb1fb0678bc21bff2d0d52c\AndroidManifest.xml:20:5-44
MERGED from [com.android.support:transition:26.1.0] C:\Users\Sagar Sojitra\.gradle\caches\transforms-1\files-1.1\transition-26.1.0.aar\044f298b00005e5d92b088cb7c5e55f1\AndroidManifest.xml:20:5-44
MERGED from [com.android.support:transition:26.1.0] C:\Users\Sagar Sojitra\.gradle\caches\transforms-1\files-1.1\transition-26.1.0.aar\044f298b00005e5d92b088cb7c5e55f1\AndroidManifest.xml:20:5-44
MERGED from [com.android.support:support-v4:26.1.0] C:\Users\Sagar Sojitra\.gradle\caches\transforms-1\files-1.1\support-v4-26.1.0.aar\0a04388275850ab12973f30769c40aad\AndroidManifest.xml:21:5-23:54
MERGED from [com.android.support:support-v4:26.1.0] C:\Users\Sagar Sojitra\.gradle\caches\transforms-1\files-1.1\support-v4-26.1.0.aar\0a04388275850ab12973f30769c40aad\AndroidManifest.xml:21:5-23:54
MERGED from [com.android.support:support-media-compat:26.1.0] C:\Users\Sagar Sojitra\.gradle\caches\transforms-1\files-1.1\support-media-compat-26.1.0.aar\e60438f0dab04d98e8cc8084d9259707\AndroidManifest.xml:21:5-23:63
MERGED from [com.android.support:support-media-compat:26.1.0] C:\Users\Sagar Sojitra\.gradle\caches\transforms-1\files-1.1\support-media-compat-26.1.0.aar\e60438f0dab04d98e8cc8084d9259707\AndroidManifest.xml:21:5-23:63
MERGED from [com.android.support:support-fragment:26.1.0] C:\Users\Sagar Sojitra\.gradle\caches\transforms-1\files-1.1\support-fragment-26.1.0.aar\1d5d2e05e44f9651fe0591c34bcc5170\AndroidManifest.xml:21:5-23:60
MERGED from [com.android.support:support-fragment:26.1.0] C:\Users\Sagar Sojitra\.gradle\caches\transforms-1\files-1.1\support-fragment-26.1.0.aar\1d5d2e05e44f9651fe0591c34bcc5170\AndroidManifest.xml:21:5-23:60
MERGED from [com.android.support:support-core-utils:26.1.0] C:\Users\Sagar Sojitra\.gradle\caches\transforms-1\files-1.1\support-core-utils-26.1.0.aar\a9470800c5f29818e0df0f6cc456a78e\AndroidManifest.xml:21:5-23:61
MERGED from [com.android.support:support-core-utils:26.1.0] C:\Users\Sagar Sojitra\.gradle\caches\transforms-1\files-1.1\support-core-utils-26.1.0.aar\a9470800c5f29818e0df0f6cc456a78e\AndroidManifest.xml:21:5-23:61
MERGED from [com.android.support:support-core-ui:26.1.0] C:\Users\Sagar Sojitra\.gradle\caches\transforms-1\files-1.1\support-core-ui-26.1.0.aar\9a659c2b5b9fe5159a285508326eb7a5\AndroidManifest.xml:21:5-23:58
MERGED from [com.android.support:support-core-ui:26.1.0] C:\Users\Sagar Sojitra\.gradle\caches\transforms-1\files-1.1\support-core-ui-26.1.0.aar\9a659c2b5b9fe5159a285508326eb7a5\AndroidManifest.xml:21:5-23:58
MERGED from [com.android.support:support-compat:26.1.0] C:\Users\Sagar Sojitra\.gradle\caches\transforms-1\files-1.1\support-compat-26.1.0.aar\9a74c6a8d70ca11f58ad4f1575a4e4ea\AndroidManifest.xml:21:5-23:58
MERGED from [com.android.support:support-compat:26.1.0] C:\Users\Sagar Sojitra\.gradle\caches\transforms-1\files-1.1\support-compat-26.1.0.aar\9a74c6a8d70ca11f58ad4f1575a4e4ea\AndroidManifest.xml:21:5-23:58
MERGED from [android.arch.lifecycle:runtime:1.0.0] C:\Users\Sagar Sojitra\.gradle\caches\transforms-1\files-1.1\runtime-1.0.0.aar\4055cbd78d21855a36bd37296bff1ce8\AndroidManifest.xml:20:5-22:41
MERGED from [android.arch.lifecycle:runtime:1.0.0] C:\Users\Sagar Sojitra\.gradle\caches\transforms-1\files-1.1\runtime-1.0.0.aar\4055cbd78d21855a36bd37296bff1ce8\AndroidManifest.xml:20:5-22:41
INJECTED from C:\Users\Sagar Sojitra\Desktop\IScoreTest\app\src\main\AndroidManifest.xml
INJECTED from C:\Users\Sagar Sojitra\Desktop\IScoreTest\app\src\main\AndroidManifest.xml
	tools:overrideLibrary
		ADDED from [com.android.support:design:26.1.0] C:\Users\Sagar Sojitra\.gradle\caches\transforms-1\files-1.1\design-26.1.0.aar\6897d9570355e8ceb32e6d7ee7726df6\AndroidManifest.xml:23:9-59
	android:targetSdkVersion
		INJECTED from C:\Users\Sagar Sojitra\Desktop\IScoreTest\app\src\main\AndroidManifest.xml
		ADDED from C:\Users\Sagar Sojitra\Desktop\IScoreTest\app\src\main\AndroidManifest.xml
		INJECTED from C:\Users\Sagar Sojitra\Desktop\IScoreTest\app\src\main\AndroidManifest.xml
	android:minSdkVersion
		INJECTED from C:\Users\Sagar Sojitra\Desktop\IScoreTest\app\src\main\AndroidManifest.xml
		ADDED from C:\Users\Sagar Sojitra\Desktop\IScoreTest\app\src\main\AndroidManifest.xml
		INJECTED from C:\Users\Sagar Sojitra\Desktop\IScoreTest\app\src\main\AndroidManifest.xml
meta-data#android.support.VERSION
ADDED from [com.android.support:design:26.1.0] C:\Users\Sagar Sojitra\.gradle\caches\transforms-1\files-1.1\design-26.1.0.aar\6897d9570355e8ceb32e6d7ee7726df6\AndroidManifest.xml:26:9-28:38
MERGED from [com.android.support:appcompat-v7:26.1.0] C:\Users\Sagar Sojitra\.gradle\caches\transforms-1\files-1.1\appcompat-v7-26.1.0.aar\1e8476dccf1e2f9370ef77afd19036f4\AndroidManifest.xml:26:9-28:38
MERGED from [com.android.support:appcompat-v7:26.1.0] C:\Users\Sagar Sojitra\.gradle\caches\transforms-1\files-1.1\appcompat-v7-26.1.0.aar\1e8476dccf1e2f9370ef77afd19036f4\AndroidManifest.xml:26:9-28:38
MERGED from [com.android.support:animated-vector-drawable:26.1.0] C:\Users\Sagar Sojitra\.gradle\caches\transforms-1\files-1.1\animated-vector-drawable-26.1.0.aar\673c431ab1e53dc680c80364704dbd67\AndroidManifest.xml:23:9-25:38
MERGED from [com.android.support:animated-vector-drawable:26.1.0] C:\Users\Sagar Sojitra\.gradle\caches\transforms-1\files-1.1\animated-vector-drawable-26.1.0.aar\673c431ab1e53dc680c80364704dbd67\AndroidManifest.xml:23:9-25:38
MERGED from [com.android.support:support-vector-drawable:26.1.0] C:\Users\Sagar Sojitra\.gradle\caches\transforms-1\files-1.1\support-vector-drawable-26.1.0.aar\6c1b1ca67a840c180f1ae1fe877884f9\AndroidManifest.xml:23:9-25:38
MERGED from [com.android.support:support-vector-drawable:26.1.0] C:\Users\Sagar Sojitra\.gradle\caches\transforms-1\files-1.1\support-vector-drawable-26.1.0.aar\6c1b1ca67a840c180f1ae1fe877884f9\AndroidManifest.xml:23:9-25:38
MERGED from [com.android.support:recyclerview-v7:26.1.0] C:\Users\Sagar Sojitra\.gradle\caches\transforms-1\files-1.1\recyclerview-v7-26.1.0.aar\d2461ce4cdb1fb0678bc21bff2d0d52c\AndroidManifest.xml:23:9-25:38
MERGED from [com.android.support:recyclerview-v7:26.1.0] C:\Users\Sagar Sojitra\.gradle\caches\transforms-1\files-1.1\recyclerview-v7-26.1.0.aar\d2461ce4cdb1fb0678bc21bff2d0d52c\AndroidManifest.xml:23:9-25:38
MERGED from [com.android.support:transition:26.1.0] C:\Users\Sagar Sojitra\.gradle\caches\transforms-1\files-1.1\transition-26.1.0.aar\044f298b00005e5d92b088cb7c5e55f1\AndroidManifest.xml:23:9-25:38
MERGED from [com.android.support:transition:26.1.0] C:\Users\Sagar Sojitra\.gradle\caches\transforms-1\files-1.1\transition-26.1.0.aar\044f298b00005e5d92b088cb7c5e55f1\AndroidManifest.xml:23:9-25:38
MERGED from [com.android.support:support-v4:26.1.0] C:\Users\Sagar Sojitra\.gradle\caches\transforms-1\files-1.1\support-v4-26.1.0.aar\0a04388275850ab12973f30769c40aad\AndroidManifest.xml:26:9-28:38
MERGED from [com.android.support:support-v4:26.1.0] C:\Users\Sagar Sojitra\.gradle\caches\transforms-1\files-1.1\support-v4-26.1.0.aar\0a04388275850ab12973f30769c40aad\AndroidManifest.xml:26:9-28:38
MERGED from [com.android.support:support-media-compat:26.1.0] C:\Users\Sagar Sojitra\.gradle\caches\transforms-1\files-1.1\support-media-compat-26.1.0.aar\e60438f0dab04d98e8cc8084d9259707\AndroidManifest.xml:26:9-28:38
MERGED from [com.android.support:support-media-compat:26.1.0] C:\Users\Sagar Sojitra\.gradle\caches\transforms-1\files-1.1\support-media-compat-26.1.0.aar\e60438f0dab04d98e8cc8084d9259707\AndroidManifest.xml:26:9-28:38
MERGED from [com.android.support:support-fragment:26.1.0] C:\Users\Sagar Sojitra\.gradle\caches\transforms-1\files-1.1\support-fragment-26.1.0.aar\1d5d2e05e44f9651fe0591c34bcc5170\AndroidManifest.xml:26:9-28:38
MERGED from [com.android.support:support-fragment:26.1.0] C:\Users\Sagar Sojitra\.gradle\caches\transforms-1\files-1.1\support-fragment-26.1.0.aar\1d5d2e05e44f9651fe0591c34bcc5170\AndroidManifest.xml:26:9-28:38
MERGED from [com.android.support:support-core-utils:26.1.0] C:\Users\Sagar Sojitra\.gradle\caches\transforms-1\files-1.1\support-core-utils-26.1.0.aar\a9470800c5f29818e0df0f6cc456a78e\AndroidManifest.xml:26:9-28:38
MERGED from [com.android.support:support-core-utils:26.1.0] C:\Users\Sagar Sojitra\.gradle\caches\transforms-1\files-1.1\support-core-utils-26.1.0.aar\a9470800c5f29818e0df0f6cc456a78e\AndroidManifest.xml:26:9-28:38
MERGED from [com.android.support:support-core-ui:26.1.0] C:\Users\Sagar Sojitra\.gradle\caches\transforms-1\files-1.1\support-core-ui-26.1.0.aar\9a659c2b5b9fe5159a285508326eb7a5\AndroidManifest.xml:26:9-28:38
MERGED from [com.android.support:support-core-ui:26.1.0] C:\Users\Sagar Sojitra\.gradle\caches\transforms-1\files-1.1\support-core-ui-26.1.0.aar\9a659c2b5b9fe5159a285508326eb7a5\AndroidManifest.xml:26:9-28:38
MERGED from [com.android.support:support-compat:26.1.0] C:\Users\Sagar Sojitra\.gradle\caches\transforms-1\files-1.1\support-compat-26.1.0.aar\9a74c6a8d70ca11f58ad4f1575a4e4ea\AndroidManifest.xml:26:9-28:38
MERGED from [com.android.support:support-compat:26.1.0] C:\Users\Sagar Sojitra\.gradle\caches\transforms-1\files-1.1\support-compat-26.1.0.aar\9a74c6a8d70ca11f58ad4f1575a4e4ea\AndroidManifest.xml:26:9-28:38
	android:value
		ADDED from [com.android.support:design:26.1.0] C:\Users\Sagar Sojitra\.gradle\caches\transforms-1\files-1.1\design-26.1.0.aar\6897d9570355e8ceb32e6d7ee7726df6\AndroidManifest.xml:28:13-35
	android:name
		ADDED from [com.android.support:design:26.1.0] C:\Users\Sagar Sojitra\.gradle\caches\transforms-1\files-1.1\design-26.1.0.aar\6897d9570355e8ceb32e6d7ee7726df6\AndroidManifest.xml:27:13-51
meta-data#android.arch.lifecycle.VERSION
ADDED from [android.arch.lifecycle:runtime:1.0.0] C:\Users\Sagar Sojitra\.gradle\caches\transforms-1\files-1.1\runtime-1.0.0.aar\4055cbd78d21855a36bd37296bff1ce8\AndroidManifest.xml:25:9-27:47
	android:value
		ADDED from [android.arch.lifecycle:runtime:1.0.0] C:\Users\Sagar Sojitra\.gradle\caches\transforms-1\files-1.1\runtime-1.0.0.aar\4055cbd78d21855a36bd37296bff1ce8\AndroidManifest.xml:27:13-44
	android:name
		ADDED from [android.arch.lifecycle:runtime:1.0.0] C:\Users\Sagar Sojitra\.gradle\caches\transforms-1\files-1.1\runtime-1.0.0.aar\4055cbd78d21855a36bd37296bff1ce8\AndroidManifest.xml:26:13-58
